com\deloitte\lineage\CommonMethods\WebDriverFunctions.class
com\deloitte\lineage\CommonMethods\WaitMethods$3.class
com\deloitte\lineage\CommonMethods\WaitMethods$4.class
com\deloitte\lineage\CommonMethods\ReadFromFile.class
com\deloitte\lineage\CommonMethods\DriverInit.class
com\deloitte\lineage\CommonMethods\WaitMethods$2.class
com\deloitte\lineage\CommonMethods\WaitMethods$5.class
com\deloitte\lineage\CommonMethods\LocatorFactory$LOCATOR_TYPE.class
com\deloitte\lineage\CommonMethods\WebDriverFunctions$2.class
com\deloitte\lineage\CommonMethods\WaitMethods$1.class
com\deloitte\lineage\CommonMethods\WaitMethods$6.class
com\deloitte\lineage\CommonMethods\WebDriverFunctions$1.class
com\deloitte\lineage\CommonMethods\WaitMethods.class
com\deloitte\lineage\CommonMethods\WaitMethods$7.class
com\deloitte\lineage\CommonMethods\WaitMethods$8.class
com\deloitte\lineage\CommonMethods\LocatorFactory$1.class
com\deloitte\lineage\CommonMethods\ElementActions.class
com\deloitte\lineage\CommonMethods\ExcelMethods.class
com\deloitte\lineage\CommonMethods\LocatorFactory.class
