<?xml version="1.0" encoding="UTF-8"?>
<testng-results skipped="0" failed="5" total="7" passed="2">
  <reporter-output>
  </reporter-output>
  <suite name="Surefire suite" duration-ms="330770" started-at="2015-09-29T05:33:10Z" finished-at="2015-09-29T05:38:41Z">
    <groups>
    </groups>
    <test name="Surefire test" duration-ms="330770" started-at="2015-09-29T05:33:10Z" finished-at="2015-09-29T05:38:41Z">
      <class name="com.deloitte.lineage.testClasses.TestStory265">
        <test-method status="PASS" signature="beforeTestPreRequisites()[pri:0, instance:com.deloitte.lineage.testClasses.TestStory265@2cd76f31]" name="beforeTestPreRequisites" is-config="true" duration-ms="879" started-at="2015-09-29T11:03:10Z" finished-at="2015-09-29T11:03:11Z">
          <reporter-output>
          </reporter-output>
        </test-method> <!-- beforeTestPreRequisites -->
        <test-method status="FAIL" signature="TC_LLVP_265_1()[pri:0, instance:com.deloitte.lineage.testClasses.TestStory265@2cd76f31]" name="TC_LLVP_265_1" duration-ms="55120" started-at="2015-09-29T11:03:11Z" finished-at="2015-09-29T11:04:06Z">
          <exception class="java.lang.AssertionError">
            <message>
              <![CDATA[Webelement on tab bar is clicked expected [true] but found [false]]]>
            </message>
            <full-stacktrace>
              <![CDATA[java.lang.AssertionError: Webelement on tab bar is clicked expected [true] but found [false]
	at org.testng.Assert.fail(Assert.java:94)
	at org.testng.Assert.failNotEquals(Assert.java:496)
	at org.testng.Assert.assertTrue(Assert.java:42)
	at com.deloitte.lineage.Tests.Assertion.AssertBase.assertTrue(AssertBase.java:26)
	at com.deloitte.lineage.PageClasses.HomePage.clickCaseTab(HomePage.java:51)
	at com.deloitte.lineage.testClasses.TestStory265.TC_LLVP_265_1(TestStory265.java:70)
	at sun.reflect.NativeMethodAccessorImpl.invoke0(Native Method)
	at sun.reflect.NativeMethodAccessorImpl.invoke(NativeMethodAccessorImpl.java:62)
	at sun.reflect.DelegatingMethodAccessorImpl.invoke(DelegatingMethodAccessorImpl.java:43)
	at java.lang.reflect.Method.invoke(Method.java:497)
	at org.testng.internal.MethodInvocationHelper.invokeMethod(MethodInvocationHelper.java:85)
	at org.testng.internal.Invoker.invokeMethod(Invoker.java:659)
	at org.testng.internal.Invoker.invokeTestMethod(Invoker.java:845)
	at org.testng.internal.Invoker.invokeTestMethods(Invoker.java:1153)
	at org.testng.internal.TestMethodWorker.invokeTestMethods(TestMethodWorker.java:125)
	at org.testng.internal.TestMethodWorker.run(TestMethodWorker.java:108)
	at org.testng.TestRunner.privateRun(TestRunner.java:771)
	at org.testng.TestRunner.run(TestRunner.java:621)
	at org.testng.SuiteRunner.runTest(SuiteRunner.java:357)
	at org.testng.SuiteRunner.runSequentially(SuiteRunner.java:352)
	at org.testng.SuiteRunner.privateRun(SuiteRunner.java:310)
	at org.testng.SuiteRunner.run(SuiteRunner.java:259)
	at org.testng.SuiteRunnerWorker.runSuite(SuiteRunnerWorker.java:52)
	at org.testng.SuiteRunnerWorker.run(SuiteRunnerWorker.java:86)
	at org.testng.TestNG.runSuitesSequentially(TestNG.java:1199)
	at org.testng.TestNG.runSuitesLocally(TestNG.java:1124)
	at org.testng.TestNG.run(TestNG.java:1032)
	at org.apache.maven.surefire.testng.TestNGExecutor.run(TestNGExecutor.java:115)
	at org.apache.maven.surefire.testng.TestNGDirectoryTestSuite.executeMulti(TestNGDirectoryTestSuite.java:205)
	at org.apache.maven.surefire.testng.TestNGDirectoryTestSuite.execute(TestNGDirectoryTestSuite.java:108)
	at org.apache.maven.surefire.testng.TestNGProvider.invoke(TestNGProvider.java:111)
	at org.apache.maven.surefire.booter.ForkedBooter.invokeProviderInSameClassLoader(ForkedBooter.java:203)
	at org.apache.maven.surefire.booter.ForkedBooter.runSuitesInProcess(ForkedBooter.java:155)
	at org.apache.maven.surefire.booter.ForkedBooter.main(ForkedBooter.java:103)
]]>
            </full-stacktrace>
          </exception> <!-- java.lang.AssertionError -->
          <reporter-output>
          </reporter-output>
        </test-method> <!-- TC_LLVP_265_1 -->
        <test-method status="PASS" signature="afterTestTearDowns()[pri:0, instance:com.deloitte.lineage.testClasses.TestStory265@2cd76f31]" name="afterTestTearDowns" is-config="true" duration-ms="9" started-at="2015-09-29T11:04:06Z" finished-at="2015-09-29T11:04:06Z">
          <reporter-output>
          </reporter-output>
        </test-method> <!-- afterTestTearDowns -->
        <test-method status="PASS" signature="beforeTestPreRequisites()[pri:0, instance:com.deloitte.lineage.testClasses.TestStory265@2cd76f31]" name="beforeTestPreRequisites" is-config="true" duration-ms="9" started-at="2015-09-29T11:04:06Z" finished-at="2015-09-29T11:04:06Z">
          <reporter-output>
          </reporter-output>
        </test-method> <!-- beforeTestPreRequisites -->
        <test-method status="PASS" signature="TC_LLVP_265_7()[pri:0, instance:com.deloitte.lineage.testClasses.TestStory265@2cd76f31]" name="TC_LLVP_265_7" duration-ms="60949" started-at="2015-09-29T11:04:06Z" finished-at="2015-09-29T11:05:07Z">
          <reporter-output>
          </reporter-output>
        </test-method> <!-- TC_LLVP_265_7 -->
        <test-method status="PASS" signature="afterTestTearDowns()[pri:0, instance:com.deloitte.lineage.testClasses.TestStory265@2cd76f31]" name="afterTestTearDowns" is-config="true" duration-ms="1154" started-at="2015-09-29T11:05:07Z" finished-at="2015-09-29T11:05:08Z">
          <reporter-output>
          </reporter-output>
        </test-method> <!-- afterTestTearDowns -->
        <test-method status="PASS" signature="beforeTestPreRequisites()[pri:0, instance:com.deloitte.lineage.testClasses.TestStory265@2cd76f31]" name="beforeTestPreRequisites" is-config="true" duration-ms="5" started-at="2015-09-29T11:05:08Z" finished-at="2015-09-29T11:05:08Z">
          <reporter-output>
          </reporter-output>
        </test-method> <!-- beforeTestPreRequisites -->
        <test-method status="FAIL" signature="TC_LLVP_265_3()[pri:0, instance:com.deloitte.lineage.testClasses.TestStory265@2cd76f31]" name="TC_LLVP_265_3" duration-ms="45573" started-at="2015-09-29T11:05:08Z" finished-at="2015-09-29T11:05:54Z">
          <exception class="java.lang.AssertionError">
            <message>
              <![CDATA[Failed as Actual Field is not same as expected field]]>
            </message>
            <full-stacktrace>
              <![CDATA[java.lang.AssertionError: Failed as Actual Field is not same as expected field
	at org.testng.Assert.fail(Assert.java:94)
	at com.deloitte.lineage.Tests.Assertion.AssertBase.fail(AssertBase.java:113)
	at com.deloitte.lineage.PageClasses.CaseHome.verifyAuditTrail(CaseHome.java:97)
	at com.deloitte.lineage.testClasses.TestStory265.TC_LLVP_265_3(TestStory265.java:144)
	at sun.reflect.NativeMethodAccessorImpl.invoke0(Native Method)
	at sun.reflect.NativeMethodAccessorImpl.invoke(NativeMethodAccessorImpl.java:62)
	at sun.reflect.DelegatingMethodAccessorImpl.invoke(DelegatingMethodAccessorImpl.java:43)
	at java.lang.reflect.Method.invoke(Method.java:497)
	at org.testng.internal.MethodInvocationHelper.invokeMethod(MethodInvocationHelper.java:85)
	at org.testng.internal.Invoker.invokeMethod(Invoker.java:659)
	at org.testng.internal.Invoker.invokeTestMethod(Invoker.java:845)
	at org.testng.internal.Invoker.invokeTestMethods(Invoker.java:1153)
	at org.testng.internal.TestMethodWorker.invokeTestMethods(TestMethodWorker.java:125)
	at org.testng.internal.TestMethodWorker.run(TestMethodWorker.java:108)
	at org.testng.TestRunner.privateRun(TestRunner.java:771)
	at org.testng.TestRunner.run(TestRunner.java:621)
	at org.testng.SuiteRunner.runTest(SuiteRunner.java:357)
	at org.testng.SuiteRunner.runSequentially(SuiteRunner.java:352)
	at org.testng.SuiteRunner.privateRun(SuiteRunner.java:310)
	at org.testng.SuiteRunner.run(SuiteRunner.java:259)
	at org.testng.SuiteRunnerWorker.runSuite(SuiteRunnerWorker.java:52)
	at org.testng.SuiteRunnerWorker.run(SuiteRunnerWorker.java:86)
	at org.testng.TestNG.runSuitesSequentially(TestNG.java:1199)
	at org.testng.TestNG.runSuitesLocally(TestNG.java:1124)
	at org.testng.TestNG.run(TestNG.java:1032)
	at org.apache.maven.surefire.testng.TestNGExecutor.run(TestNGExecutor.java:115)
	at org.apache.maven.surefire.testng.TestNGDirectoryTestSuite.executeMulti(TestNGDirectoryTestSuite.java:205)
	at org.apache.maven.surefire.testng.TestNGDirectoryTestSuite.execute(TestNGDirectoryTestSuite.java:108)
	at org.apache.maven.surefire.testng.TestNGProvider.invoke(TestNGProvider.java:111)
	at org.apache.maven.surefire.booter.ForkedBooter.invokeProviderInSameClassLoader(ForkedBooter.java:203)
	at org.apache.maven.surefire.booter.ForkedBooter.runSuitesInProcess(ForkedBooter.java:155)
	at org.apache.maven.surefire.booter.ForkedBooter.main(ForkedBooter.java:103)
]]>
            </full-stacktrace>
          </exception> <!-- java.lang.AssertionError -->
          <reporter-output>
          </reporter-output>
        </test-method> <!-- TC_LLVP_265_3 -->
        <test-method status="PASS" signature="afterTestTearDowns()[pri:0, instance:com.deloitte.lineage.testClasses.TestStory265@2cd76f31]" name="afterTestTearDowns" is-config="true" duration-ms="5089" started-at="2015-09-29T11:05:54Z" finished-at="2015-09-29T11:05:59Z">
          <reporter-output>
          </reporter-output>
        </test-method> <!-- afterTestTearDowns -->
        <test-method status="PASS" signature="beforeTestPreRequisites()[pri:0, instance:com.deloitte.lineage.testClasses.TestStory265@2cd76f31]" name="beforeTestPreRequisites" is-config="true" duration-ms="6" started-at="2015-09-29T11:05:59Z" finished-at="2015-09-29T11:05:59Z">
          <reporter-output>
          </reporter-output>
        </test-method> <!-- beforeTestPreRequisites -->
        <test-method status="FAIL" signature="TC_LLVP_265_5()[pri:0, instance:com.deloitte.lineage.testClasses.TestStory265@2cd76f31]" name="TC_LLVP_265_5" duration-ms="42403" started-at="2015-09-29T11:05:59Z" finished-at="2015-09-29T11:06:41Z">
          <exception class="java.lang.AssertionError">
            <message>
              <![CDATA[Failed as Actual Field is not same as expected field]]>
            </message>
            <full-stacktrace>
              <![CDATA[java.lang.AssertionError: Failed as Actual Field is not same as expected field
	at org.testng.Assert.fail(Assert.java:94)
	at com.deloitte.lineage.Tests.Assertion.AssertBase.fail(AssertBase.java:113)
	at com.deloitte.lineage.PageClasses.CaseHome.verifyAuditTrail(CaseHome.java:97)
	at com.deloitte.lineage.testClasses.TestStory265.TC_LLVP_265_5(TestStory265.java:231)
	at sun.reflect.NativeMethodAccessorImpl.invoke0(Native Method)
	at sun.reflect.NativeMethodAccessorImpl.invoke(NativeMethodAccessorImpl.java:62)
	at sun.reflect.DelegatingMethodAccessorImpl.invoke(DelegatingMethodAccessorImpl.java:43)
	at java.lang.reflect.Method.invoke(Method.java:497)
	at org.testng.internal.MethodInvocationHelper.invokeMethod(MethodInvocationHelper.java:85)
	at org.testng.internal.Invoker.invokeMethod(Invoker.java:659)
	at org.testng.internal.Invoker.invokeTestMethod(Invoker.java:845)
	at org.testng.internal.Invoker.invokeTestMethods(Invoker.java:1153)
	at org.testng.internal.TestMethodWorker.invokeTestMethods(TestMethodWorker.java:125)
	at org.testng.internal.TestMethodWorker.run(TestMethodWorker.java:108)
	at org.testng.TestRunner.privateRun(TestRunner.java:771)
	at org.testng.TestRunner.run(TestRunner.java:621)
	at org.testng.SuiteRunner.runTest(SuiteRunner.java:357)
	at org.testng.SuiteRunner.runSequentially(SuiteRunner.java:352)
	at org.testng.SuiteRunner.privateRun(SuiteRunner.java:310)
	at org.testng.SuiteRunner.run(SuiteRunner.java:259)
	at org.testng.SuiteRunnerWorker.runSuite(SuiteRunnerWorker.java:52)
	at org.testng.SuiteRunnerWorker.run(SuiteRunnerWorker.java:86)
	at org.testng.TestNG.runSuitesSequentially(TestNG.java:1199)
	at org.testng.TestNG.runSuitesLocally(TestNG.java:1124)
	at org.testng.TestNG.run(TestNG.java:1032)
	at org.apache.maven.surefire.testng.TestNGExecutor.run(TestNGExecutor.java:115)
	at org.apache.maven.surefire.testng.TestNGDirectoryTestSuite.executeMulti(TestNGDirectoryTestSuite.java:205)
	at org.apache.maven.surefire.testng.TestNGDirectoryTestSuite.execute(TestNGDirectoryTestSuite.java:108)
	at org.apache.maven.surefire.testng.TestNGProvider.invoke(TestNGProvider.java:111)
	at org.apache.maven.surefire.booter.ForkedBooter.invokeProviderInSameClassLoader(ForkedBooter.java:203)
	at org.apache.maven.surefire.booter.ForkedBooter.runSuitesInProcess(ForkedBooter.java:155)
	at org.apache.maven.surefire.booter.ForkedBooter.main(ForkedBooter.java:103)
]]>
            </full-stacktrace>
          </exception> <!-- java.lang.AssertionError -->
          <reporter-output>
          </reporter-output>
        </test-method> <!-- TC_LLVP_265_5 -->
        <test-method status="PASS" signature="afterTestTearDowns()[pri:0, instance:com.deloitte.lineage.testClasses.TestStory265@2cd76f31]" name="afterTestTearDowns" is-config="true" duration-ms="407" started-at="2015-09-29T11:06:41Z" finished-at="2015-09-29T11:06:41Z">
          <reporter-output>
          </reporter-output>
        </test-method> <!-- afterTestTearDowns -->
        <test-method status="PASS" signature="beforeTestPreRequisites()[pri:0, instance:com.deloitte.lineage.testClasses.TestStory265@2cd76f31]" name="beforeTestPreRequisites" is-config="true" duration-ms="11" started-at="2015-09-29T11:06:41Z" finished-at="2015-09-29T11:06:41Z">
          <reporter-output>
          </reporter-output>
        </test-method> <!-- beforeTestPreRequisites -->
        <test-method status="FAIL" signature="TC_LLVP_265_4()[pri:0, instance:com.deloitte.lineage.testClasses.TestStory265@2cd76f31]" name="TC_LLVP_265_4" duration-ms="40047" started-at="2015-09-29T11:06:41Z" finished-at="2015-09-29T11:07:22Z">
          <exception class="java.lang.AssertionError">
            <message>
              <![CDATA[Webelement on tab bar is clicked expected [true] but found [false]]]>
            </message>
            <full-stacktrace>
              <![CDATA[java.lang.AssertionError: Webelement on tab bar is clicked expected [true] but found [false]
	at org.testng.Assert.fail(Assert.java:94)
	at org.testng.Assert.failNotEquals(Assert.java:496)
	at org.testng.Assert.assertTrue(Assert.java:42)
	at com.deloitte.lineage.Tests.Assertion.AssertBase.assertTrue(AssertBase.java:26)
	at com.deloitte.lineage.PageClasses.HomePage.clickCaseTab(HomePage.java:51)
	at com.deloitte.lineage.testClasses.TestStory265.TC_LLVP_265_4(TestStory265.java:180)
	at sun.reflect.NativeMethodAccessorImpl.invoke0(Native Method)
	at sun.reflect.NativeMethodAccessorImpl.invoke(NativeMethodAccessorImpl.java:62)
	at sun.reflect.DelegatingMethodAccessorImpl.invoke(DelegatingMethodAccessorImpl.java:43)
	at java.lang.reflect.Method.invoke(Method.java:497)
	at org.testng.internal.MethodInvocationHelper.invokeMethod(MethodInvocationHelper.java:85)
	at org.testng.internal.Invoker.invokeMethod(Invoker.java:659)
	at org.testng.internal.Invoker.invokeTestMethod(Invoker.java:845)
	at org.testng.internal.Invoker.invokeTestMethods(Invoker.java:1153)
	at org.testng.internal.TestMethodWorker.invokeTestMethods(TestMethodWorker.java:125)
	at org.testng.internal.TestMethodWorker.run(TestMethodWorker.java:108)
	at org.testng.TestRunner.privateRun(TestRunner.java:771)
	at org.testng.TestRunner.run(TestRunner.java:621)
	at org.testng.SuiteRunner.runTest(SuiteRunner.java:357)
	at org.testng.SuiteRunner.runSequentially(SuiteRunner.java:352)
	at org.testng.SuiteRunner.privateRun(SuiteRunner.java:310)
	at org.testng.SuiteRunner.run(SuiteRunner.java:259)
	at org.testng.SuiteRunnerWorker.runSuite(SuiteRunnerWorker.java:52)
	at org.testng.SuiteRunnerWorker.run(SuiteRunnerWorker.java:86)
	at org.testng.TestNG.runSuitesSequentially(TestNG.java:1199)
	at org.testng.TestNG.runSuitesLocally(TestNG.java:1124)
	at org.testng.TestNG.run(TestNG.java:1032)
	at org.apache.maven.surefire.testng.TestNGExecutor.run(TestNGExecutor.java:115)
	at org.apache.maven.surefire.testng.TestNGDirectoryTestSuite.executeMulti(TestNGDirectoryTestSuite.java:205)
	at org.apache.maven.surefire.testng.TestNGDirectoryTestSuite.execute(TestNGDirectoryTestSuite.java:108)
	at org.apache.maven.surefire.testng.TestNGProvider.invoke(TestNGProvider.java:111)
	at org.apache.maven.surefire.booter.ForkedBooter.invokeProviderInSameClassLoader(ForkedBooter.java:203)
	at org.apache.maven.surefire.booter.ForkedBooter.runSuitesInProcess(ForkedBooter.java:155)
	at org.apache.maven.surefire.booter.ForkedBooter.main(ForkedBooter.java:103)
]]>
            </full-stacktrace>
          </exception> <!-- java.lang.AssertionError -->
          <reporter-output>
          </reporter-output>
        </test-method> <!-- TC_LLVP_265_4 -->
        <test-method status="PASS" signature="afterTestTearDowns()[pri:0, instance:com.deloitte.lineage.testClasses.TestStory265@2cd76f31]" name="afterTestTearDowns" is-config="true" duration-ms="9" started-at="2015-09-29T11:07:22Z" finished-at="2015-09-29T11:07:22Z">
          <reporter-output>
          </reporter-output>
        </test-method> <!-- afterTestTearDowns -->
        <test-method status="PASS" signature="beforeTestPreRequisites()[pri:0, instance:com.deloitte.lineage.testClasses.TestStory265@2cd76f31]" name="beforeTestPreRequisites" is-config="true" duration-ms="12" started-at="2015-09-29T11:07:22Z" finished-at="2015-09-29T11:07:22Z">
          <reporter-output>
          </reporter-output>
        </test-method> <!-- beforeTestPreRequisites -->
        <test-method status="FAIL" signature="TC_LLVP_265_6()[pri:0, instance:com.deloitte.lineage.testClasses.TestStory265@2cd76f31]" name="TC_LLVP_265_6" duration-ms="41638" started-at="2015-09-29T11:07:22Z" finished-at="2015-09-29T11:08:03Z">
          <exception class="java.lang.AssertionError">
            <message>
              <![CDATA[Failed as Actual Field is not same as expected field]]>
            </message>
            <full-stacktrace>
              <![CDATA[java.lang.AssertionError: Failed as Actual Field is not same as expected field
	at org.testng.Assert.fail(Assert.java:94)
	at com.deloitte.lineage.Tests.Assertion.AssertBase.fail(AssertBase.java:113)
	at com.deloitte.lineage.PageClasses.CaseHome.verifyAuditTrail(CaseHome.java:97)
	at com.deloitte.lineage.testClasses.TestStory265.TC_LLVP_265_6(TestStory265.java:266)
	at sun.reflect.NativeMethodAccessorImpl.invoke0(Native Method)
	at sun.reflect.NativeMethodAccessorImpl.invoke(NativeMethodAccessorImpl.java:62)
	at sun.reflect.DelegatingMethodAccessorImpl.invoke(DelegatingMethodAccessorImpl.java:43)
	at java.lang.reflect.Method.invoke(Method.java:497)
	at org.testng.internal.MethodInvocationHelper.invokeMethod(MethodInvocationHelper.java:85)
	at org.testng.internal.Invoker.invokeMethod(Invoker.java:659)
	at org.testng.internal.Invoker.invokeTestMethod(Invoker.java:845)
	at org.testng.internal.Invoker.invokeTestMethods(Invoker.java:1153)
	at org.testng.internal.TestMethodWorker.invokeTestMethods(TestMethodWorker.java:125)
	at org.testng.internal.TestMethodWorker.run(TestMethodWorker.java:108)
	at org.testng.TestRunner.privateRun(TestRunner.java:771)
	at org.testng.TestRunner.run(TestRunner.java:621)
	at org.testng.SuiteRunner.runTest(SuiteRunner.java:357)
	at org.testng.SuiteRunner.runSequentially(SuiteRunner.java:352)
	at org.testng.SuiteRunner.privateRun(SuiteRunner.java:310)
	at org.testng.SuiteRunner.run(SuiteRunner.java:259)
	at org.testng.SuiteRunnerWorker.runSuite(SuiteRunnerWorker.java:52)
	at org.testng.SuiteRunnerWorker.run(SuiteRunnerWorker.java:86)
	at org.testng.TestNG.runSuitesSequentially(TestNG.java:1199)
	at org.testng.TestNG.runSuitesLocally(TestNG.java:1124)
	at org.testng.TestNG.run(TestNG.java:1032)
	at org.apache.maven.surefire.testng.TestNGExecutor.run(TestNGExecutor.java:115)
	at org.apache.maven.surefire.testng.TestNGDirectoryTestSuite.executeMulti(TestNGDirectoryTestSuite.java:205)
	at org.apache.maven.surefire.testng.TestNGDirectoryTestSuite.execute(TestNGDirectoryTestSuite.java:108)
	at org.apache.maven.surefire.testng.TestNGProvider.invoke(TestNGProvider.java:111)
	at org.apache.maven.surefire.booter.ForkedBooter.invokeProviderInSameClassLoader(ForkedBooter.java:203)
	at org.apache.maven.surefire.booter.ForkedBooter.runSuitesInProcess(ForkedBooter.java:155)
	at org.apache.maven.surefire.booter.ForkedBooter.main(ForkedBooter.java:103)
]]>
            </full-stacktrace>
          </exception> <!-- java.lang.AssertionError -->
          <reporter-output>
          </reporter-output>
        </test-method> <!-- TC_LLVP_265_6 -->
        <test-method status="PASS" signature="afterTestTearDowns()[pri:0, instance:com.deloitte.lineage.testClasses.TestStory265@2cd76f31]" name="afterTestTearDowns" is-config="true" duration-ms="431" started-at="2015-09-29T11:08:03Z" finished-at="2015-09-29T11:08:04Z">
          <reporter-output>
          </reporter-output>
        </test-method> <!-- afterTestTearDowns -->
        <test-method status="PASS" signature="beforeTestPreRequisites()[pri:0, instance:com.deloitte.lineage.testClasses.TestStory265@2cd76f31]" name="beforeTestPreRequisites" is-config="true" duration-ms="17" started-at="2015-09-29T11:08:04Z" finished-at="2015-09-29T11:08:04Z">
          <reporter-output>
          </reporter-output>
        </test-method> <!-- beforeTestPreRequisites -->
        <test-method status="PASS" signature="TC_LLVP_265_2()[pri:0, instance:com.deloitte.lineage.testClasses.TestStory265@2cd76f31]" name="TC_LLVP_265_2" duration-ms="36507" started-at="2015-09-29T11:08:04Z" depends-on-methods="com.deloitte.lineage.testClasses.TestStory265.TC_LLVP_265_7" finished-at="2015-09-29T11:08:40Z">
          <reporter-output>
          </reporter-output>
        </test-method> <!-- TC_LLVP_265_2 -->
        <test-method status="PASS" signature="afterTestTearDowns()[pri:0, instance:com.deloitte.lineage.testClasses.TestStory265@2cd76f31]" name="afterTestTearDowns" is-config="true" duration-ms="462" started-at="2015-09-29T11:08:40Z" finished-at="2015-09-29T11:08:41Z">
          <reporter-output>
          </reporter-output>
        </test-method> <!-- afterTestTearDowns -->
      </class> <!-- com.deloitte.lineage.testClasses.TestStory265 -->
    </test> <!-- Surefire test -->
  </suite> <!-- Surefire suite -->
</testng-results>
